{
    "240": {
        "4801": {
            "arrivals": [],
            "departures": [
                "07:10"
            ],
            "id": "4801",
            "name": "Os 4801"
        },
        "4805": {
            "arrivals": [],
            "departures": [
                "09:13"
            ],
            "id": "4805",
            "name": "Os 4805"
        },
        "4806": {
            "arrivals": [
                "07:39"
            ],
            "departures": [],
            "id": "4806",
            "name": "Os 4806"
        },
        "4807": {
            "arrivals": [],
            "departures": [
                "10:12"
            ],
            "id": "4807",
            "name": "Os 4807"
        },
        "4808": {
            "arrivals": [
                "09:39"
            ],
            "departures": [],
            "id": "4808",
            "name": "Os 4808"
        },
        "4809": {
            "arrivals": [],
            "departures": [
                "12:12"
            ],
            "id": "4809",
            "name": "Os 4809"
        },
        "4810": {
            "arrivals": [
                "11:39"
            ],
            "departures": [],
            "id": "4810",
            "name": "Os 4810"
        },
        "4811": {
            "arrivals": [],
            "departures": [
                "14:14"
            ],
            "id": "4811",
            "name": "Os 4811"
        },
        "4813": {
            "arrivals": [],
            "departures": [
                "16:14"
            ],
            "id": "4813",
            "name": "Os 4813"
        },
        "4814": {
            "arrivals": [
                "13:39"
            ],
            "departures": [],
            "id": "4814",
            "name": "Os 4814"
        },
        "4815": {
            "arrivals": [],
            "departures": [
                "18:14"
            ],
            "id": "4815",
            "name": "Os 4815"
        },
        "4816": {
            "arrivals": [
                "15:39"
            ],
            "departures": [],
            "id": "4816",
            "name": "Os 4816"
        },
        "4817": {
            "arrivals": [],
            "departures": [
                "20:12"
            ],
            "id": "4817",
            "name": "Os 4817"
        },
        "4818": {
            "arrivals": [
                "18:39"
            ],
            "departures": [],
            "id": "4818",
            "name": "Os 4818"
        },
        "4819": {
            "arrivals": [
                "22:10"
            ],
            "departures": [
                "22:10"
            ],
            "id": "4819",
            "name": "Os 4819"
        },
        "4821": {
            "arrivals": [],
            "departures": [
                "05:12"
            ],
            "id": "4821",
            "name": "Os 4821"
        },
        "4824": {
            "arrivals": [
                "06:39"
            ],
            "departures": [],
            "id": "4824",
            "name": "Os 4824"
        },
        "4825": {
            "arrivals": [],
            "departures": [
                "06:10"
            ],
            "id": "4825",
            "name": "Os 4825"
        },
        "4826": {
            "arrivals": [
                "08:39"
            ],
            "departures": [],
            "id": "4826",
            "name": "Os 4826"
        },
        "4828": {
            "arrivals": [
                "10:39"
            ],
            "departures": [],
            "id": "4828",
            "name": "Os 4828"
        },
        "4830": {
            "arrivals": [
                "12:39"
            ],
            "departures": [],
            "id": "4830",
            "name": "Os 4830"
        },
        "4831": {
            "arrivals": [],
            "departures": [
                "08:13"
            ],
            "id": "4831",
            "name": "Os 4831"
        },
        "4833": {
            "arrivals": [],
            "departures": [
                "11:12"
            ],
            "id": "4833",
            "name": "Os 4833"
        },
        "4834": {
            "arrivals": [
                "14:39"
            ],
            "departures": [],
            "id": "4834",
            "name": "Os 4834"
        },
        "4835": {
            "arrivals": [],
            "departures": [
                "13:12"
            ],
            "id": "4835",
            "name": "Os 4835"
        },
        "4837": {
            "arrivals": [],
            "departures": [
                "15:14"
            ],
            "id": "4837",
            "name": "Os 4837"
        },
        "4840": {
            "arrivals": [
                "16:39"
            ],
            "departures": [],
            "id": "4840",
            "name": "Os 4840"
        },
        "4841": {
            "arrivals": [],
            "departures": [
                "17:14"
            ],
            "id": "4841",
            "name": "Os 4841"
        },
        "4844": {
            "arrivals": [
                "17:39"
            ],
            "departures": [],
            "id": "4844",
            "name": "Os 4844"
        },
        "4847": {
            "arrivals": [],
            "departures": [
                "19:12"
            ],
            "id": "4847",
            "name": "Os 4847"
        },
        "4848": {
            "arrivals": [
                "19:39"
            ],
            "departures": [],
            "id": "4848",
            "name": "Os 4848"
        },
        "4850": {
            "arrivals": [
                "20:39"
            ],
            "departures": [],
            "id": "4850",
            "name": "Os 4850"
        },
        "4852": {
            "arrivals": [
                "21:39"
            ],
            "departures": [],
            "id": "4852",
            "name": "Os 4852"
        },
        "4854": {
            "arrivals": [
                "22:41",
                "22:41"
            ],
            "departures": [
                "22:41"
            ],
            "id": "4854",
            "name": "Os 4854"
        },
        "660": {
            "arrivals": [
                "07:20"
            ],
            "departures": [],
            "id": "660",
            "name": "R 660 Ro\u017emberk"
        },
        "661": {
            "arrivals": [],
            "departures": [
                "20:36"
            ],
            "id": "661",
            "name": "R 661 Ro\u017emberk"
        },
        "662": {
            "arrivals": [
                "09:20"
            ],
            "departures": [],
            "id": "662",
            "name": "R 662 Vajgar"
        },
        "663": {
            "arrivals": [],
            "departures": [
                "18:36"
            ],
            "id": "663",
            "name": "R 663 Vajgar"
        },
        "664": {
            "arrivals": [
                "11:20"
            ],
            "departures": [],
            "id": "664",
            "name": "R 664 Jakub Kr\u010d\u00edn"
        },
        "665": {
            "arrivals": [],
            "departures": [
                "16:36"
            ],
            "id": "665",
            "name": "R 665 Jakub Kr\u010d\u00edn"
        },
        "666": {
            "arrivals": [
                "13:20"
            ],
            "departures": [],
            "id": "666",
            "name": "R 666 Petr Vok"
        },
        "667": {
            "arrivals": [],
            "departures": [
                "14:36"
            ],
            "id": "667",
            "name": "R 667 Petr Vok"
        },
        "668": {
            "arrivals": [
                "15:20"
            ],
            "departures": [],
            "id": "668",
            "name": "R 668 Bezdrev"
        },
        "669": {
            "arrivals": [],
            "departures": [
                "12:36"
            ],
            "id": "669",
            "name": "R 669 Bezdrev"
        },
        "926": {
            "arrivals": [
                "17:20"
            ],
            "departures": [],
            "id": "926",
            "name": "R 926 Jun\u00e1k"
        },
        "928": {
            "arrivals": [
                "19:20"
            ],
            "departures": [],
            "id": "928",
            "name": "R 928 Jihlava"
        },
        "929": {
            "arrivals": [],
            "departures": [
                "10:36"
            ],
            "id": "929",
            "name": "R 929 Jihlava"
        }
    },
    "244": {
        "4401": {
            "arrivals": [],
            "departures": [
                "05:31"
            ],
            "id": "4401",
            "name": "Os 4401"
        },
        "4402": {
            "arrivals": [
                "06:49"
            ],
            "departures": [],
            "id": "4402",
            "name": "Os 4402"
        },
        "4404": {
            "arrivals": [
                "08:49"
            ],
            "departures": [],
            "id": "4404",
            "name": "Os 4404"
        },
        "4405": {
            "arrivals": [],
            "departures": [
                "09:01"
            ],
            "id": "4405",
            "name": "Os 4405"
        },
        "4406": {
            "arrivals": [
                "10:54"
            ],
            "departures": [],
            "id": "4406",
            "name": "Os 4406"
        },
        "4407": {
            "arrivals": [],
            "departures": [
                "11:04"
            ],
            "id": "4407",
            "name": "Os 4407"
        },
        "4408": {
            "arrivals": [
                "12:54"
            ],
            "departures": [],
            "id": "4408",
            "name": "Os 4408"
        },
        "4409": {
            "arrivals": [],
            "departures": [
                "13:04"
            ],
            "id": "4409",
            "name": "Os 4409"
        },
        "4410": {
            "arrivals": [
                "14:54"
            ],
            "departures": [],
            "id": "4410",
            "name": "Os 4410"
        },
        "4411": {
            "arrivals": [],
            "departures": [
                "15:04"
            ],
            "id": "4411",
            "name": "Os 4411"
        },
        "4413": {
            "arrivals": [],
            "departures": [
                "17:04"
            ],
            "id": "4413",
            "name": "Os 4413"
        },
        "4414": {
            "arrivals": [
                "18:54"
            ],
            "departures": [],
            "id": "4414",
            "name": "Os 4414"
        },
        "4416": {
            "arrivals": [
                "19:54"
            ],
            "departures": [],
            "id": "4416",
            "name": "Os 4416"
        },
        "4417": {
            "arrivals": [],
            "departures": [
                "21:04"
            ],
            "id": "4417",
            "name": "Os 4417"
        },
        "4418": {
            "arrivals": [
                "20:54"
            ],
            "departures": [],
            "id": "4418",
            "name": "Os 4418"
        },
        "4425": {
            "arrivals": [],
            "departures": [
                "07:01"
            ],
            "id": "4425",
            "name": "Os 4425"
        },
        "4428": {
            "arrivals": [
                "21:54"
            ],
            "departures": [],
            "id": "4428",
            "name": "Os 4428"
        },
        "4430": {
            "arrivals": [
                "22:54"
            ],
            "departures": [],
            "id": "4430",
            "name": "Os 4430"
        },
        "4442": {
            "arrivals": [
                "07:49"
            ],
            "departures": [],
            "id": "4442",
            "name": "Os 4442"
        },
        "4443": {
            "arrivals": [],
            "departures": [
                "08:01"
            ],
            "id": "4443",
            "name": "Os 4443"
        },
        "4444": {
            "arrivals": [
                "09:54"
            ],
            "departures": [],
            "id": "4444",
            "name": "Os 4444"
        },
        "4445": {
            "arrivals": [],
            "departures": [
                "10:04"
            ],
            "id": "4445",
            "name": "Os 4445"
        },
        "4446": {
            "arrivals": [
                "11:54"
            ],
            "departures": [],
            "id": "4446",
            "name": "Os 4446"
        },
        "4447": {
            "arrivals": [],
            "departures": [
                "12:04"
            ],
            "id": "4447",
            "name": "Os 4447"
        },
        "4448": {
            "arrivals": [
                "13:54"
            ],
            "departures": [],
            "id": "4448",
            "name": "Os 4448"
        },
        "4449": {
            "arrivals": [],
            "departures": [
                "14:04"
            ],
            "id": "4449",
            "name": "Os 4449"
        },
        "4450": {
            "arrivals": [
                "15:54"
            ],
            "departures": [],
            "id": "4450",
            "name": "Os 4450"
        },
        "4451": {
            "arrivals": [],
            "departures": [
                "16:04"
            ],
            "id": "4451",
            "name": "Os 4451"
        },
        "4452": {
            "arrivals": [
                "17:54"
            ],
            "departures": [],
            "id": "4452",
            "name": "Os 4452"
        },
        "4453": {
            "arrivals": [],
            "departures": [
                "18:04"
            ],
            "id": "4453",
            "name": "Os 4453"
        },
        "4455": {
            "arrivals": [
                "20:04"
            ],
            "departures": [
                "20:04"
            ],
            "id": "4455",
            "name": "Os 4455"
        }
    },
    "250": {
        "1636": {
            "arrivals": [
                "08:11"
            ],
            "departures": [
                "08:11"
            ],
            "id": "1636",
            "name": "Sp 1636 Pern\u0161tejn"
        },
        "1637": {
            "arrivals": [
                "17:52"
            ],
            "departures": [
                "17:52"
            ],
            "id": "1637",
            "name": "Sp 1637 Pern\u0161tejn"
        },
        "170": {
            "arrivals": [
                "13:37"
            ],
            "departures": [
                "13:39"
            ],
            "id": "170",
            "name": "EC 170 Hungaria"
        },
        "171": {
            "arrivals": [
                "14:19"
            ],
            "departures": [
                "14:22"
            ],
            "id": "171",
            "name": "EC 171 Hungaria"
        },
        "172": {
            "arrivals": [],
            "departures": [
                "11:39"
            ],
            "id": "172",
            "name": "EC 172 Vindobona"
        },
        "173": {
            "arrivals": [],
            "departures": [
                "16:22"
            ],
            "id": "173",
            "name": "EC 173 Vindobona"
        },
        "174": {
            "arrivals": [],
            "departures": [
                "09:39"
            ],
            "id": "174",
            "name": "EC 174 Jan Jesenius"
        },
        "175": {
            "arrivals": [],
            "departures": [
                "18:22"
            ],
            "id": "175",
            "name": "EC 175 Jan Jesenius"
        },
        "1777": {
            "arrivals": [
                "19:36"
            ],
            "departures": [
                "19:36"
            ],
            "id": "1777",
            "name": "Sp 1777"
        },
        "272": {
            "arrivals": [],
            "departures": [
                "19:39"
            ],
            "id": "272",
            "name": "EC 272 Avala"
        },
        "273": {
            "arrivals": [],
            "departures": [
                "08:22"
            ],
            "id": "273",
            "name": "EC 273 Avala"
        },
        "274": {
            "arrivals": [],
            "departures": [
                "17:39"
            ],
            "id": "274",
            "name": "EC 274 Jaroslav Ha\u0161ek"
        },
        "275": {
            "arrivals": [],
            "departures": [
                "10:22"
            ],
            "id": "275",
            "name": "EC 275 Jaroslav Ha\u0161ek"
        },
        "276": {
            "arrivals": [],
            "departures": [
                "15:39"
            ],
            "id": "276",
            "name": "EC 276 Slovan"
        },
        "277": {
            "arrivals": [],
            "departures": [
                "12:22"
            ],
            "id": "277",
            "name": "EC 277 Slovan"
        },
        "278": {
            "arrivals": [],
            "departures": [
                "10:39"
            ],
            "id": "278",
            "name": "EC 278 Gustav Klimt"
        },
        "279": {
            "arrivals": [],
            "departures": [
                "17:22"
            ],
            "id": "279",
            "name": "EC 279 Gustav Klimt"
        },
        "378": {
            "arrivals": [],
            "departures": [
                "07:39"
            ],
            "id": "378",
            "name": "EC 378 Slovensk\u00e1 strela"
        },
        "379": {
            "arrivals": [],
            "departures": [
                "22:19"
            ],
            "id": "379",
            "name": "EC 379 Carl Maria von Weber"
        },
        "4600": {
            "arrivals": [
                "05:49"
            ],
            "departures": [
                "05:53"
            ],
            "id": "4600",
            "name": "Os 4600"
        },
        "4601": {
            "arrivals": [
                "06:07"
            ],
            "departures": [
                "06:10"
            ],
            "id": "4601",
            "name": "Os 4601"
        },
        "4602": {
            "arrivals": [
                "14:49"
            ],
            "departures": [
                "14:52"
            ],
            "id": "4602",
            "name": "Os 4602"
        },
        "4603": {
            "arrivals": [
                "07:07"
            ],
            "departures": [
                "07:10"
            ],
            "id": "4603",
            "name": "Os 4603"
        },
        "4604": {
            "arrivals": [
                "16:49"
            ],
            "departures": [
                "16:52"
            ],
            "id": "4604",
            "name": "Os 4604"
        },
        "4605": {
            "arrivals": [
                "17:07"
            ],
            "departures": [
                "17:10"
            ],
            "id": "4605",
            "name": "Os 4605"
        },
        "4611": {
            "arrivals": [
                "05:07"
            ],
            "departures": [
                "05:07"
            ],
            "id": "4611",
            "name": "Os 4611"
        },
        "4612": {
            "arrivals": [
                "06:49"
            ],
            "departures": [
                "06:52"
            ],
            "id": "4612",
            "name": "Os 4612"
        },
        "4613": {
            "arrivals": [
                "09:07"
            ],
            "departures": [
                "09:10"
            ],
            "id": "4613",
            "name": "Os 4613"
        },
        "4615": {
            "arrivals": [
                "11:07"
            ],
            "departures": [
                "11:10"
            ],
            "id": "4615",
            "name": "Os 4615"
        },
        "4617": {
            "arrivals": [
                "13:07"
            ],
            "departures": [
                "13:10"
            ],
            "id": "4617",
            "name": "Os 4617"
        },
        "4618": {
            "arrivals": [
                "08:49"
            ],
            "departures": [
                "08:53"
            ],
            "id": "4618",
            "name": "Os 4618"
        },
        "4620": {
            "arrivals": [
                "10:49"
            ],
            "departures": [
                "10:53"
            ],
            "id": "4620",
            "name": "Os 4620"
        },
        "4622": {
            "arrivals": [
                "12:49"
            ],
            "departures": [
                "12:53"
            ],
            "id": "4622",
            "name": "Os 4622"
        },
        "4623": {
            "arrivals": [
                "15:07"
            ],
            "departures": [
                "15:10"
            ],
            "id": "4623",
            "name": "Os 4623"
        },
        "4630": {
            "arrivals": [
                "18:49"
            ],
            "departures": [
                "18:52"
            ],
            "id": "4630",
            "name": "Os 4630"
        },
        "4632": {
            "arrivals": [
                "20:49"
            ],
            "departures": [
                "20:53"
            ],
            "id": "4632",
            "name": "Os 4632"
        },
        "4633": {
            "arrivals": [
                "19:07"
            ],
            "departures": [
                "19:10"
            ],
            "id": "4633",
            "name": "Os 4633"
        },
        "4635": {
            "arrivals": [
                "21:07"
            ],
            "departures": [
                "21:10"
            ],
            "id": "4635",
            "name": "Os 4635"
        },
        "4900": {
            "arrivals": [
                "04:50"
            ],
            "departures": [
                "04:50"
            ],
            "id": "4900",
            "name": "Os 4900"
        },
        "4903": {
            "arrivals": [
                "08:07"
            ],
            "departures": [
                "08:10"
            ],
            "id": "4903",
            "name": "Os 4903"
        },
        "4905": {
            "arrivals": [
                "10:07"
            ],
            "departures": [
                "10:10"
            ],
            "id": "4905",
            "name": "Os 4905"
        },
        "4906": {
            "arrivals": [
                "07:49"
            ],
            "departures": [
                "07:53"
            ],
            "id": "4906",
            "name": "Os 4906"
        },
        "4907": {
            "arrivals": [
                "12:07"
            ],
            "departures": [
                "12:10"
            ],
            "id": "4907",
            "name": "Os 4907"
        },
        "4908": {
            "arrivals": [
                "09:49"
            ],
            "departures": [
                "09:53"
            ],
            "id": "4908",
            "name": "Os 4908"
        },
        "4909": {
            "arrivals": [
                "14:07"
            ],
            "departures": [
                "14:10"
            ],
            "id": "4909",
            "name": "Os 4909"
        },
        "4910": {
            "arrivals": [
                "11:49"
            ],
            "departures": [
                "11:53"
            ],
            "id": "4910",
            "name": "Os 4910"
        },
        "4911": {
            "arrivals": [
                "16:07"
            ],
            "departures": [
                "16:10"
            ],
            "id": "4911",
            "name": "Os 4911"
        },
        "4912": {
            "arrivals": [
                "13:49"
            ],
            "departures": [
                "13:52"
            ],
            "id": "4912",
            "name": "Os 4912"
        },
        "4913": {
            "arrivals": [
                "18:07"
            ],
            "departures": [
                "18:10"
            ],
            "id": "4913",
            "name": "Os 4913"
        },
        "4914": {
            "arrivals": [
                "15:49"
            ],
            "departures": [
                "15:52"
            ],
            "id": "4914",
            "name": "Os 4914"
        },
        "4915": {
            "arrivals": [
                "20:07"
            ],
            "departures": [
                "20:10"
            ],
            "id": "4915",
            "name": "Os 4915"
        },
        "4916": {
            "arrivals": [
                "17:49"
            ],
            "departures": [
                "17:52"
            ],
            "id": "4916",
            "name": "Os 4916"
        },
        "4917": {
            "arrivals": [
                "22:07"
            ],
            "departures": [
                "22:10"
            ],
            "id": "4917",
            "name": "Os 4917"
        },
        "4918": {
            "arrivals": [
                "19:49"
            ],
            "departures": [
                "19:53"
            ],
            "id": "4918",
            "name": "Os 4918"
        },
        "4944": {
            "arrivals": [
                "21:49"
            ],
            "departures": [
                "21:53"
            ],
            "id": "4944",
            "name": "Os 4944"
        },
        "570": {
            "arrivals": [],
            "departures": [
                "12:39"
            ],
            "id": "570",
            "name": "Ex 570 Zden\u011bk Fibich"
        },
        "571": {
            "arrivals": [],
            "departures": [
                "15:22"
            ],
            "id": "571",
            "name": "Ex 571 Zden\u011bk Fibich"
        },
        "573": {
            "arrivals": [],
            "departures": [
                "19:19"
            ],
            "id": "573",
            "name": "Ex 573 Brn\u011bnsk\u00fd drak"
        },
        "672": {
            "arrivals": [
                "06:20"
            ],
            "departures": [
                "06:20"
            ],
            "id": "672",
            "name": "R 672"
        },
        "673": {
            "arrivals": [
                "07:45"
            ],
            "departures": [
                "07:45"
            ],
            "id": "673",
            "name": "R 673"
        },
        "674": {
            "arrivals": [
                "08:20"
            ],
            "departures": [
                "08:20"
            ],
            "id": "674",
            "name": "R 674"
        },
        "675": {
            "arrivals": [
                "09:41"
            ],
            "departures": [
                "09:41"
            ],
            "id": "675",
            "name": "R 675"
        },
        "676": {
            "arrivals": [
                "10:20"
            ],
            "departures": [
                "10:20"
            ],
            "id": "676",
            "name": "R 676"
        },
        "677": {
            "arrivals": [
                "11:41"
            ],
            "departures": [
                "11:41"
            ],
            "id": "677",
            "name": "R 677"
        },
        "678": {
            "arrivals": [
                "12:20"
            ],
            "departures": [
                "12:20"
            ],
            "id": "678",
            "name": "R 678"
        },
        "679": {
            "arrivals": [
                "13:41"
            ],
            "departures": [
                "13:41"
            ],
            "id": "679",
            "name": "R 679"
        },
        "680": {
            "arrivals": [
                "14:20"
            ],
            "departures": [
                "14:20"
            ],
            "id": "680",
            "name": "R 680"
        },
        "681": {
            "arrivals": [
                "15:41"
            ],
            "departures": [
                "15:41"
            ],
            "id": "681",
            "name": "R 681"
        },
        "682": {
            "arrivals": [
                "15:20"
            ],
            "departures": [
                "15:20"
            ],
            "id": "682",
            "name": "R 682"
        },
        "683": {
            "arrivals": [
                "17:41"
            ],
            "departures": [
                "17:41"
            ],
            "id": "683",
            "name": "R 683"
        },
        "684": {
            "arrivals": [
                "16:20"
            ],
            "departures": [
                "16:20"
            ],
            "id": "684",
            "name": "R 684"
        },
        "687": {
            "arrivals": [
                "19:41"
            ],
            "departures": [
                "19:41"
            ],
            "id": "687",
            "name": "R 687"
        },
        "688": {
            "arrivals": [
                "18:20"
            ],
            "departures": [
                "18:20"
            ],
            "id": "688",
            "name": "R 688"
        },
        "689": {
            "arrivals": [
                "21:41"
            ],
            "departures": [
                "21:41"
            ],
            "id": "689",
            "name": "R 689"
        },
        "70": {
            "arrivals": [],
            "departures": [
                "14:39"
            ],
            "id": "70",
            "name": "EC 70 Gustav Mahler"
        },
        "71": {
            "arrivals": [],
            "departures": [
                "07:22"
            ],
            "id": "71",
            "name": "EC 71 Gustav Mahler"
        },
        "72": {
            "arrivals": [],
            "departures": [
                "16:39"
            ],
            "id": "72",
            "name": "EC 72 Smetana"
        },
        "73": {
            "arrivals": [],
            "departures": [
                "09:22"
            ],
            "id": "73",
            "name": "EC 73 Smetana"
        },
        "74": {
            "arrivals": [],
            "departures": [
                "18:39"
            ],
            "id": "74",
            "name": "EC 74 Franz Schubert"
        },
        "75": {
            "arrivals": [],
            "departures": [
                "11:22"
            ],
            "id": "75",
            "name": "EC 75 Franz Schubert"
        },
        "76": {
            "arrivals": [],
            "departures": [
                "20:39"
            ],
            "id": "76",
            "name": "EC 76 Anton\u00edn Dvo\u0159\u00e1k"
        },
        "77": {
            "arrivals": [],
            "departures": [
                "13:22"
            ],
            "id": "77",
            "name": "EC 77 Anton\u00edn Dvo\u0159\u00e1k"
        },
        "78": {
            "arrivals": [],
            "departures": [
                "08:39"
            ],
            "id": "78",
            "name": "EC 78 Johann Gregor Mendel"
        },
        "79": {
            "arrivals": [],
            "departures": [
                "21:22"
            ],
            "id": "79",
            "name": "EC 79 Johann Gregor Mendel"
        },
        "802": {
            "arrivals": [
                "09:24"
            ],
            "departures": [
                "09:24"
            ],
            "id": "802",
            "name": "R 802"
        },
        "803": {
            "arrivals": [
                "06:36"
            ],
            "departures": [
                "06:36"
            ],
            "id": "803",
            "name": "R 803"
        },
        "804": {
            "arrivals": [
                "11:24"
            ],
            "departures": [
                "11:24"
            ],
            "id": "804",
            "name": "R 804"
        },
        "805": {
            "arrivals": [
                "08:36"
            ],
            "departures": [
                "08:36"
            ],
            "id": "805",
            "name": "R 805"
        },
        "806": {
            "arrivals": [
                "13:24"
            ],
            "departures": [
                "13:24"
            ],
            "id": "806",
            "name": "R 806"
        },
        "807": {
            "arrivals": [
                "10:36"
            ],
            "departures": [
                "10:36"
            ],
            "id": "807",
            "name": "R 807"
        },
        "808": {
            "arrivals": [
                "15:24"
            ],
            "departures": [
                "15:24"
            ],
            "id": "808",
            "name": "R 808"
        },
        "809": {
            "arrivals": [
                "12:36"
            ],
            "departures": [
                "12:36"
            ],
            "id": "809",
            "name": "R 809"
        },
        "810": {
            "arrivals": [
                "17:24"
            ],
            "departures": [
                "17:24"
            ],
            "id": "810",
            "name": "R 810"
        },
        "811": {
            "arrivals": [
                "14:36"
            ],
            "departures": [
                "14:36"
            ],
            "id": "811",
            "name": "R 811"
        },
        "812": {
            "arrivals": [
                "19:24"
            ],
            "departures": [
                "19:24"
            ],
            "id": "812",
            "name": "R 812"
        },
        "813": {
            "arrivals": [
                "16:36"
            ],
            "departures": [
                "16:36"
            ],
            "id": "813",
            "name": "R 813"
        },
        "814": {
            "arrivals": [
                "21:24"
            ],
            "departures": [
                "21:24"
            ],
            "id": "814",
            "name": "R 814"
        },
        "815": {
            "arrivals": [
                "18:36"
            ],
            "departures": [
                "18:36"
            ],
            "id": "815",
            "name": "R 815"
        },
        "817": {
            "arrivals": [
                "20:36"
            ],
            "departures": [
                "20:36"
            ],
            "id": "817",
            "name": "R 817"
        }
    },
    "260": {
        "1470": {
            "arrivals": [
                "15:08"
            ],
            "departures": [
                "15:08"
            ],
            "id": "1470",
            "name": "Ex 1470 D1 Express"
        },
        "1471": {
            "arrivals": [
                "21:44"
            ],
            "departures": [
                "21:44"
            ],
            "id": "1471",
            "name": "Ex 1471 D1 Express"
        },
        "1472": {
            "arrivals": [
                "17:08"
            ],
            "departures": [
                "17:08"
            ],
            "id": "1472",
            "name": "Ex 1472 D1 Express"
        },
        "172": {
            "arrivals": [
                "11:37"
            ],
            "departures": [],
            "id": "172",
            "name": "EC 172 Vindobona"
        },
        "173": {
            "arrivals": [
                "16:19"
            ],
            "departures": [],
            "id": "173",
            "name": "EC 173 Vindobona"
        },
        "174": {
            "arrivals": [
                "09:37"
            ],
            "departures": [],
            "id": "174",
            "name": "EC 174 Jan Jesenius"
        },
        "175": {
            "arrivals": [
                "18:19"
            ],
            "departures": [],
            "id": "175",
            "name": "EC 175 Jan Jesenius"
        },
        "176": {
            "arrivals": [
                "05:39"
            ],
            "departures": [
                "05:39"
            ],
            "id": "176",
            "name": "EC 176 Johannes Brahms"
        },
        "177": {
            "arrivals": [
                "20:19"
            ],
            "departures": [
                "20:22"
            ],
            "id": "177",
            "name": "EC 177 Slovensk\u00e1 strela"
        },
        "272": {
            "arrivals": [
                "19:37"
            ],
            "departures": [],
            "id": "272",
            "name": "EC 272 Avala"
        },
        "273": {
            "arrivals": [
                "08:19"
            ],
            "departures": [],
            "id": "273",
            "name": "EC 273 Avala"
        },
        "274": {
            "arrivals": [
                "17:37"
            ],
            "departures": [],
            "id": "274",
            "name": "EC 274 Jaroslav Ha\u0161ek"
        },
        "275": {
            "arrivals": [
                "10:19"
            ],
            "departures": [],
            "id": "275",
            "name": "EC 275 Jaroslav Ha\u0161ek"
        },
        "276": {
            "arrivals": [
                "15:37"
            ],
            "departures": [],
            "id": "276",
            "name": "EC 276 Slovan"
        },
        "277": {
            "arrivals": [
                "12:19"
            ],
            "departures": [],
            "id": "277",
            "name": "EC 277 Slovan"
        },
        "278": {
            "arrivals": [
                "10:37"
            ],
            "departures": [],
            "id": "278",
            "name": "EC 278 Gustav Klimt"
        },
        "279": {
            "arrivals": [
                "17:19"
            ],
            "departures": [],
            "id": "279",
            "name": "EC 279 Gustav Klimt"
        },
        "378": {
            "arrivals": [
                "07:37"
            ],
            "departures": [],
            "id": "378",
            "name": "EC 378 Slovensk\u00e1 strela"
        },
        "379": {
            "arrivals": [
                "22:19"
            ],
            "departures": [],
            "id": "379",
            "name": "EC 379 Carl Maria von Weber"
        },
        "4008": {
            "arrivals": [],
            "departures": [
                "08:26"
            ],
            "id": "4008",
            "name": "Os 4008"
        },
        "4012": {
            "arrivals": [],
            "departures": [
                "10:26"
            ],
            "id": "4012",
            "name": "Os 4012"
        },
        "4017": {
            "arrivals": [
                "19:58"
            ],
            "departures": [
                "19:58"
            ],
            "id": "4017",
            "name": "Os 4017"
        },
        "4702": {
            "arrivals": [],
            "departures": [
                "05:25"
            ],
            "id": "4702",
            "name": "Os 4702"
        },
        "4703": {
            "arrivals": [],
            "departures": [
                "06:05"
            ],
            "id": "4703",
            "name": "Os 4703"
        },
        "4704": {
            "arrivals": [],
            "departures": [
                "06:01"
            ],
            "id": "4704",
            "name": "Os 4704"
        },
        "4706": {
            "arrivals": [],
            "departures": [
                "07:01"
            ],
            "id": "4706",
            "name": "Os 4706"
        },
        "4707": {
            "arrivals": [],
            "departures": [
                "07:06"
            ],
            "id": "4707",
            "name": "Os 4707"
        },
        "4708": {
            "arrivals": [],
            "departures": [
                "08:02"
            ],
            "id": "4708",
            "name": "Os 4708"
        },
        "4710": {
            "arrivals": [
                "09:02"
            ],
            "departures": [
                "09:02"
            ],
            "id": "4710",
            "name": "Os 4710"
        },
        "4711": {
            "arrivals": [],
            "departures": [
                "07:58"
            ],
            "id": "4711",
            "name": "Os 4711"
        },
        "4712": {
            "arrivals": [
                "10:02"
            ],
            "departures": [
                "10:02"
            ],
            "id": "4712",
            "name": "Os 4712"
        },
        "4713": {
            "arrivals": [],
            "departures": [
                "09:06",
                "08:58"
            ],
            "id": "4713",
            "name": "Os 4713"
        },
        "4714": {
            "arrivals": [
                "11:02"
            ],
            "departures": [
                "11:02"
            ],
            "id": "4714",
            "name": "Os 4714"
        },
        "4715": {
            "arrivals": [],
            "departures": [
                "09:58"
            ],
            "id": "4715",
            "name": "Os 4715"
        },
        "4716": {
            "arrivals": [
                "12:02"
            ],
            "departures": [
                "12:02"
            ],
            "id": "4716",
            "name": "Os 4716"
        },
        "4717": {
            "arrivals": [],
            "departures": [
                "11:06",
                "10:58"
            ],
            "id": "4717",
            "name": "Os 4717"
        },
        "4718": {
            "arrivals": [
                "13:02"
            ],
            "departures": [
                "13:02"
            ],
            "id": "4718",
            "name": "Os 4718"
        },
        "4719": {
            "arrivals": [
                "11:58"
            ],
            "departures": [
                "11:58"
            ],
            "id": "4719",
            "name": "Os 4719"
        },
        "4720": {
            "arrivals": [
                "14:02"
            ],
            "departures": [
                "14:02"
            ],
            "id": "4720",
            "name": "Os 4720"
        },
        "4721": {
            "arrivals": [],
            "departures": [
                "12:58",
                "13:06"
            ],
            "id": "4721",
            "name": "Os 4721"
        },
        "4722": {
            "arrivals": [],
            "departures": [
                "15:02"
            ],
            "id": "4722",
            "name": "Os 4722"
        },
        "4723": {
            "arrivals": [],
            "departures": [
                "14:02"
            ],
            "id": "4723",
            "name": "Os 4723"
        },
        "4724": {
            "arrivals": [],
            "departures": [
                "16:02"
            ],
            "id": "4724",
            "name": "Os 4724"
        },
        "4725": {
            "arrivals": [],
            "departures": [
                "14:59",
                "15:06"
            ],
            "id": "4725",
            "name": "Os 4725"
        },
        "4726": {
            "arrivals": [],
            "departures": [
                "17:02"
            ],
            "id": "4726",
            "name": "Os 4726"
        },
        "4727": {
            "arrivals": [],
            "departures": [
                "15:59"
            ],
            "id": "4727",
            "name": "Os 4727"
        },
        "4728": {
            "arrivals": [],
            "departures": [
                "18:02"
            ],
            "id": "4728",
            "name": "Os 4728"
        },
        "4729": {
            "arrivals": [],
            "departures": [
                "17:06"
            ],
            "id": "4729",
            "name": "Os 4729"
        },
        "4730": {
            "arrivals": [],
            "departures": [
                "19:02"
            ],
            "id": "4730",
            "name": "Os 4730"
        },
        "4731": {
            "arrivals": [],
            "departures": [
                "17:58"
            ],
            "id": "4731",
            "name": "Os 4731"
        },
        "4732": {
            "arrivals": [
                "20:02"
            ],
            "departures": [
                "20:02"
            ],
            "id": "4732",
            "name": "Os 4732"
        },
        "4733": {
            "arrivals": [],
            "departures": [
                "19:06"
            ],
            "id": "4733",
            "name": "Os 4733"
        },
        "4734": {
            "arrivals": [
                "21:02"
            ],
            "departures": [
                "21:02"
            ],
            "id": "4734",
            "name": "Os 4734"
        },
        "4736": {
            "arrivals": [
                "22:02"
            ],
            "departures": [
                "22:02"
            ],
            "id": "4736",
            "name": "Os 4736"
        },
        "4737": {
            "arrivals": [],
            "departures": [
                "21:06"
            ],
            "id": "4737",
            "name": "Os 4737"
        },
        "4739": {
            "arrivals": [
                "21:58"
            ],
            "departures": [
                "21:58"
            ],
            "id": "4739",
            "name": "Os 4739"
        },
        "4741": {
            "arrivals": [],
            "departures": [
                "04:57"
            ],
            "id": "4741",
            "name": "Os 4741"
        },
        "4742": {
            "arrivals": [],
            "departures": [
                "07:26"
            ],
            "id": "4742",
            "name": "Os 4742"
        },
        "4744": {
            "arrivals": [],
            "departures": [
                "12:26"
            ],
            "id": "4744",
            "name": "Os 4744"
        },
        "4748": {
            "arrivals": [],
            "departures": [
                "14:26"
            ],
            "id": "4748",
            "name": "Os 4748"
        },
        "4752": {
            "arrivals": [],
            "departures": [
                "16:26"
            ],
            "id": "4752",
            "name": "Os 4752"
        },
        "4756": {
            "arrivals": [],
            "departures": [
                "18:26"
            ],
            "id": "4756",
            "name": "Os 4756"
        },
        "570": {
            "arrivals": [
                "12:37"
            ],
            "departures": [],
            "id": "570",
            "name": "Ex 570 Zden\u011bk Fibich"
        },
        "571": {
            "arrivals": [
                "15:19"
            ],
            "departures": [],
            "id": "571",
            "name": "Ex 571 Zden\u011bk Fibich"
        },
        "573": {
            "arrivals": [
                "19:19"
            ],
            "departures": [],
            "id": "573",
            "name": "Ex 573 Brn\u011bnsk\u00fd drak"
        },
        "70": {
            "arrivals": [
                "14:37"
            ],
            "departures": [],
            "id": "70",
            "name": "EC 70 Gustav Mahler"
        },
        "71": {
            "arrivals": [
                "07:22"
            ],
            "departures": [],
            "id": "71",
            "name": "EC 71 Gustav Mahler"
        },
        "72": {
            "arrivals": [
                "16:37"
            ],
            "departures": [],
            "id": "72",
            "name": "EC 72 Smetana"
        },
        "73": {
            "arrivals": [
                "09:19"
            ],
            "departures": [],
            "id": "73",
            "name": "EC 73 Smetana"
        },
        "74": {
            "arrivals": [
                "18:37"
            ],
            "departures": [],
            "id": "74",
            "name": "EC 74 Franz Schubert"
        },
        "75": {
            "arrivals": [
                "11:19"
            ],
            "departures": [],
            "id": "75",
            "name": "EC 75 Franz Schubert"
        },
        "76": {
            "arrivals": [
                "20:37"
            ],
            "departures": [],
            "id": "76",
            "name": "EC 76 Anton\u00edn Dvo\u0159\u00e1k"
        },
        "77": {
            "arrivals": [
                "13:19"
            ],
            "departures": [],
            "id": "77",
            "name": "EC 77 Anton\u00edn Dvo\u0159\u00e1k"
        },
        "78": {
            "arrivals": [
                "08:37"
            ],
            "departures": [],
            "id": "78",
            "name": "EC 78 Johann Gregor Mendel"
        },
        "79": {
            "arrivals": [
                "21:19"
            ],
            "departures": [],
            "id": "79",
            "name": "EC 79 Johann Gregor Mendel"
        },
        "864": {
            "arrivals": [
                "06:55"
            ],
            "departures": [
                "06:55"
            ],
            "id": "864",
            "name": "R 864 Josef V\u00e1clav Myslbek"
        },
        "865": {
            "arrivals": [
                "09:02"
            ],
            "departures": [
                "09:02"
            ],
            "id": "865",
            "name": "R 865 Josef V\u00e1clav Myslbek"
        },
        "866": {
            "arrivals": [
                "08:57"
            ],
            "departures": [
                "08:57"
            ],
            "id": "866",
            "name": "R 866 Slavkov"
        },
        "867": {
            "arrivals": [
                "11:02"
            ],
            "departures": [
                "11:02"
            ],
            "id": "867",
            "name": "R 867 Slavkov"
        },
        "868": {
            "arrivals": [
                "10:57"
            ],
            "departures": [
                "10:57"
            ],
            "id": "868",
            "name": "R 868 Punkva"
        },
        "869": {
            "arrivals": [
                "13:02"
            ],
            "departures": [
                "13:02"
            ],
            "id": "869",
            "name": "R 869 Punkva"
        },
        "870": {
            "arrivals": [
                "12:57"
            ],
            "departures": [
                "12:57"
            ],
            "id": "870",
            "name": "R 870 \u0160pilberk"
        },
        "871": {
            "arrivals": [
                "15:02"
            ],
            "departures": [
                "15:02"
            ],
            "id": "871",
            "name": "R 871 \u0160pilberk"
        },
        "872": {
            "arrivals": [
                "14:57"
            ],
            "departures": [
                "14:57"
            ],
            "id": "872",
            "name": "R 872 Macocha"
        },
        "873": {
            "arrivals": [
                "17:02"
            ],
            "departures": [
                "17:02"
            ],
            "id": "873",
            "name": "R 873 Macocha"
        },
        "874": {
            "arrivals": [
                "16:57"
            ],
            "departures": [
                "16:57"
            ],
            "id": "874",
            "name": "R 874 Rudolf T\u011bsnohl\u00eddek"
        },
        "875": {
            "arrivals": [
                "19:02"
            ],
            "departures": [
                "19:02"
            ],
            "id": "875",
            "name": "R 875 Rudolf T\u011bsnohl\u00eddek"
        },
        "876": {
            "arrivals": [
                "18:57"
            ],
            "departures": [
                "18:57"
            ],
            "id": "876",
            "name": "R 876 Svitava"
        },
        "877": {
            "arrivals": [
                "21:02"
            ],
            "departures": [
                "21:02"
            ],
            "id": "877",
            "name": "R 877 Svitava"
        },
        "878": {
            "arrivals": [
                "20:57"
            ],
            "departures": [
                "20:57"
            ],
            "id": "878",
            "name": "R 878"
        }
    },
    "300": {
        "1402": {
            "arrivals": [
                "20:38"
            ],
            "departures": [
                "20:38"
            ],
            "id": "1402",
            "name": "R 1402"
        },
        "1403": {
            "arrivals": [
                "06:28"
            ],
            "departures": [
                "06:28"
            ],
            "id": "1403",
            "name": "R 1403"
        },
        "1436": {
            "arrivals": [
                "21:55"
            ],
            "departures": [],
            "id": "1436",
            "name": "R 1436"
        },
        "1437": {
            "arrivals": [
                "20:02"
            ],
            "departures": [],
            "id": "1437",
            "name": "R 1437"
        },
        "1438": {
            "arrivals": [
                "22:38"
            ],
            "departures": [
                "22:38"
            ],
            "id": "1438",
            "name": "R 1438"
        },
        "1646": {
            "arrivals": [
                "21:21"
            ],
            "departures": [],
            "id": "1646",
            "name": "Sp 1646 Radho\u0161\u0165"
        },
        "21990": {
            "arrivals": [
                "19:56"
            ],
            "departures": [
                "20:06"
            ],
            "id": "21990",
            "name": "Sv 21990"
        },
        "4008": {
            "arrivals": [
                "08:26"
            ],
            "departures": [],
            "id": "4008",
            "name": "Os 4008"
        },
        "4012": {
            "arrivals": [
                "10:26"
            ],
            "departures": [],
            "id": "4012",
            "name": "Os 4012"
        },
        "4020": {
            "arrivals": [
                "20:26"
            ],
            "departures": [
                "20:26"
            ],
            "id": "4020",
            "name": "Os 4020"
        },
        "4024": {
            "arrivals": [
                "22:26"
            ],
            "departures": [
                "22:26"
            ],
            "id": "4024",
            "name": "Os 4024"
        },
        "4027": {
            "arrivals": [
                "22:46"
            ],
            "departures": [
                "22:46"
            ],
            "id": "4027",
            "name": "Os 4027"
        },
        "4702": {
            "arrivals": [
                "05:25"
            ],
            "departures": [],
            "id": "4702",
            "name": "Os 4702"
        },
        "4703": {
            "arrivals": [
                "05:58"
            ],
            "departures": [],
            "id": "4703",
            "name": "Os 4703"
        },
        "4704": {
            "arrivals": [
                "06:01"
            ],
            "departures": [],
            "id": "4704",
            "name": "Os 4704"
        },
        "4706": {
            "arrivals": [
                "07:01"
            ],
            "departures": [],
            "id": "4706",
            "name": "Os 4706"
        },
        "4707": {
            "arrivals": [
                "06:58"
            ],
            "departures": [],
            "id": "4707",
            "name": "Os 4707"
        },
        "4708": {
            "arrivals": [
                "08:02"
            ],
            "departures": [],
            "id": "4708",
            "name": "Os 4708"
        },
        "4711": {
            "arrivals": [
                "07:58"
            ],
            "departures": [],
            "id": "4711",
            "name": "Os 4711"
        },
        "4713": {
            "arrivals": [
                "09:06",
                "08:58"
            ],
            "departures": [],
            "id": "4713",
            "name": "Os 4713"
        },
        "4715": {
            "arrivals": [
                "09:58"
            ],
            "departures": [],
            "id": "4715",
            "name": "Os 4715"
        },
        "4717": {
            "arrivals": [
                "11:06",
                "10:58"
            ],
            "departures": [],
            "id": "4717",
            "name": "Os 4717"
        },
        "4721": {
            "arrivals": [
                "12:58",
                "13:06"
            ],
            "departures": [],
            "id": "4721",
            "name": "Os 4721"
        },
        "4722": {
            "arrivals": [
                "15:02"
            ],
            "departures": [],
            "id": "4722",
            "name": "Os 4722"
        },
        "4723": {
            "arrivals": [
                "14:02"
            ],
            "departures": [],
            "id": "4723",
            "name": "Os 4723"
        },
        "4724": {
            "arrivals": [
                "16:02"
            ],
            "departures": [],
            "id": "4724",
            "name": "Os 4724"
        },
        "4725": {
            "arrivals": [
                "14:59",
                "15:06"
            ],
            "departures": [],
            "id": "4725",
            "name": "Os 4725"
        },
        "4726": {
            "arrivals": [
                "17:02"
            ],
            "departures": [],
            "id": "4726",
            "name": "Os 4726"
        },
        "4727": {
            "arrivals": [
                "15:59"
            ],
            "departures": [],
            "id": "4727",
            "name": "Os 4727"
        },
        "4728": {
            "arrivals": [
                "18:02"
            ],
            "departures": [],
            "id": "4728",
            "name": "Os 4728"
        },
        "4729": {
            "arrivals": [
                "16:59"
            ],
            "departures": [],
            "id": "4729",
            "name": "Os 4729"
        },
        "4730": {
            "arrivals": [
                "19:02"
            ],
            "departures": [],
            "id": "4730",
            "name": "Os 4730"
        },
        "4731": {
            "arrivals": [
                "17:58"
            ],
            "departures": [],
            "id": "4731",
            "name": "Os 4731"
        },
        "4733": {
            "arrivals": [
                "18:58"
            ],
            "departures": [],
            "id": "4733",
            "name": "Os 4733"
        },
        "4737": {
            "arrivals": [
                "20:59"
            ],
            "departures": [],
            "id": "4737",
            "name": "Os 4737"
        },
        "4741": {
            "arrivals": [
                "04:57"
            ],
            "departures": [],
            "id": "4741",
            "name": "Os 4741"
        },
        "4742": {
            "arrivals": [
                "07:26"
            ],
            "departures": [],
            "id": "4742",
            "name": "Os 4742"
        },
        "4744": {
            "arrivals": [
                "12:26"
            ],
            "departures": [],
            "id": "4744",
            "name": "Os 4744"
        },
        "4748": {
            "arrivals": [
                "14:26"
            ],
            "departures": [],
            "id": "4748",
            "name": "Os 4748"
        },
        "4752": {
            "arrivals": [
                "16:26"
            ],
            "departures": [],
            "id": "4752",
            "name": "Os 4752"
        },
        "4756": {
            "arrivals": [
                "18:26"
            ],
            "departures": [],
            "id": "4756",
            "name": "Os 4756"
        },
        "732": {
            "arrivals": [
                "08:57"
            ],
            "departures": [],
            "id": "732",
            "name": "R 732 Radegast"
        },
        "733": {
            "arrivals": [
                "07:02"
            ],
            "departures": [],
            "id": "733",
            "name": "R 733 Radegast"
        },
        "734": {
            "arrivals": [
                "10:57"
            ],
            "departures": [],
            "id": "734",
            "name": "R 734"
        },
        "735": {
            "arrivals": [
                "09:02"
            ],
            "departures": [],
            "id": "735",
            "name": "R 735"
        },
        "736": {
            "arrivals": [
                "12:57"
            ],
            "departures": [],
            "id": "736",
            "name": "R 736"
        },
        "737": {
            "arrivals": [
                "11:02"
            ],
            "departures": [],
            "id": "737",
            "name": "R 737"
        },
        "738": {
            "arrivals": [
                "14:59"
            ],
            "departures": [],
            "id": "738",
            "name": "R 738"
        },
        "739": {
            "arrivals": [
                "13:02"
            ],
            "departures": [],
            "id": "739",
            "name": "R 739"
        },
        "740": {
            "arrivals": [
                "16:59"
            ],
            "departures": [],
            "id": "740",
            "name": "R 740"
        },
        "741": {
            "arrivals": [
                "15:02"
            ],
            "departures": [],
            "id": "741",
            "name": "R 741"
        },
        "742": {
            "arrivals": [
                "18:59"
            ],
            "departures": [],
            "id": "742",
            "name": "R 742"
        },
        "743": {
            "arrivals": [
                "17:02"
            ],
            "departures": [],
            "id": "743",
            "name": "R 743"
        },
        "744": {
            "arrivals": [
                "20:55"
            ],
            "departures": [],
            "id": "744",
            "name": "R 744"
        },
        "745": {
            "arrivals": [
                "19:02"
            ],
            "departures": [],
            "id": "745",
            "name": "R 745"
        },
        "746": {
            "arrivals": [
                "22:55"
            ],
            "departures": [],
            "id": "746",
            "name": "R 746"
        },
        "747": {
            "arrivals": [
                "21:02"
            ],
            "departures": [],
            "id": "747",
            "name": "R 747"
        },
        "832": {
            "arrivals": [
                "09:57"
            ],
            "departures": [],
            "id": "832",
            "name": "R 832"
        },
        "833": {
            "arrivals": [
                "12:02"
            ],
            "departures": [],
            "id": "833",
            "name": "R 833"
        },
        "834": {
            "arrivals": [
                "15:59"
            ],
            "departures": [],
            "id": "834",
            "name": "R 834"
        },
        "835": {
            "arrivals": [
                "14:02"
            ],
            "departures": [],
            "id": "835",
            "name": "R 835"
        },
        "836": {
            "arrivals": [
                "17:59"
            ],
            "departures": [],
            "id": "836",
            "name": "R 836"
        },
        "837": {
            "arrivals": [
                "16:02"
            ],
            "departures": [],
            "id": "837",
            "name": "R 837"
        },
        "838": {
            "arrivals": [
                "19:57"
            ],
            "departures": [],
            "id": "838",
            "name": "R 838"
        },
        "839": {
            "arrivals": [
                "18:02"
            ],
            "departures": [],
            "id": "839",
            "name": "R 839"
        },
        "900": {
            "arrivals": [
                "10:42"
            ],
            "departures": [
                "10:42"
            ],
            "id": "900",
            "name": "R 900 Prad\u011bd"
        },
        "901": {
            "arrivals": [
                "07:18"
            ],
            "departures": [
                "07:18"
            ],
            "id": "901",
            "name": "R 901 Prad\u011bd"
        },
        "902": {
            "arrivals": [
                "12:42"
            ],
            "departures": [
                "12:42"
            ],
            "id": "902",
            "name": "R 902"
        },
        "903": {
            "arrivals": [
                "09:18"
            ],
            "departures": [
                "09:18"
            ],
            "id": "903",
            "name": "R 903"
        },
        "904": {
            "arrivals": [
                "16:43"
            ],
            "departures": [
                "16:43"
            ],
            "id": "904",
            "name": "R 904"
        },
        "905": {
            "arrivals": [
                "13:18"
            ],
            "departures": [
                "13:18"
            ],
            "id": "905",
            "name": "R 905"
        },
        "906": {
            "arrivals": [
                "18:42"
            ],
            "departures": [
                "18:42"
            ],
            "id": "906",
            "name": "R 906"
        },
        "907": {
            "arrivals": [
                "15:18"
            ],
            "departures": [
                "15:18"
            ],
            "id": "907",
            "name": "R 907"
        },
        "932": {
            "arrivals": [
                "08:42"
            ],
            "departures": [
                "08:42"
            ],
            "id": "932",
            "name": "R 932"
        },
        "933": {
            "arrivals": [
                "11:18"
            ],
            "departures": [
                "11:18"
            ],
            "id": "933",
            "name": "R 933"
        },
        "934": {
            "arrivals": [
                "14:43"
            ],
            "departures": [
                "14:43"
            ],
            "id": "934",
            "name": "R 934"
        },
        "935": {
            "arrivals": [
                "17:18"
            ],
            "departures": [
                "17:18"
            ],
            "id": "935",
            "name": "R 935"
        },
        "937": {
            "arrivals": [
                "19:18"
            ],
            "departures": [
                "19:18"
            ],
            "id": "937",
            "name": "R 937"
        }
    },
    "340": {
        "1436": {
            "arrivals": [],
            "departures": [
                "21:55"
            ],
            "id": "1436",
            "name": "R 1436"
        },
        "1437": {
            "arrivals": [],
            "departures": [
                "20:02"
            ],
            "id": "1437",
            "name": "R 1437"
        },
        "1646": {
            "arrivals": [],
            "departures": [
                "21:21"
            ],
            "id": "1646",
            "name": "Sp 1646 Radho\u0161\u0165"
        },
        "1720": {
            "arrivals": [
                "07:33"
            ],
            "departures": [
                "07:33"
            ],
            "id": "1720",
            "name": "Sp 1720 Litava"
        },
        "1721": {
            "arrivals": [
                "07:35"
            ],
            "departures": [
                "07:35"
            ],
            "id": "1721",
            "name": "Sp 1721 Litava"
        },
        "1722": {
            "arrivals": [
                "08:34"
            ],
            "departures": [
                "08:34"
            ],
            "id": "1722",
            "name": "Sp 1722 Santon"
        },
        "1723": {
            "arrivals": [
                "09:28"
            ],
            "departures": [
                "09:28"
            ],
            "id": "1723",
            "name": "Sp 1723 Santon"
        },
        "1724": {
            "arrivals": [
                "10:33"
            ],
            "departures": [
                "10:33"
            ],
            "id": "1724",
            "name": "Sp 1724 Kyjovka"
        },
        "1725": {
            "arrivals": [
                "11:28"
            ],
            "departures": [
                "11:28"
            ],
            "id": "1725",
            "name": "Sp 1725 Kyjovka"
        },
        "1726": {
            "arrivals": [
                "12:33"
            ],
            "departures": [
                "12:33"
            ],
            "id": "1726",
            "name": "Sp 1726 Javo\u0159ina"
        },
        "1728": {
            "arrivals": [
                "14:33"
            ],
            "departures": [
                "14:33"
            ],
            "id": "1728",
            "name": "Sp 1728 Cimburk"
        },
        "1729": {
            "arrivals": [
                "13:28"
            ],
            "departures": [
                "13:28"
            ],
            "id": "1729",
            "name": "Sp 1729"
        },
        "1730": {
            "arrivals": [
                "16:33"
            ],
            "departures": [
                "16:33"
            ],
            "id": "1730",
            "name": "Sp 1730 Hru\u0161kovice"
        },
        "1731": {
            "arrivals": [
                "15:28"
            ],
            "departures": [
                "15:28"
            ],
            "id": "1731",
            "name": "Sp 1731 Hru\u0161kovice"
        },
        "1732": {
            "arrivals": [
                "18:33"
            ],
            "departures": [
                "18:33"
            ],
            "id": "1732",
            "name": "Sp 1732 \u017dur\u00e1\u0148"
        },
        "1733": {
            "arrivals": [
                "17:28"
            ],
            "departures": [
                "17:28"
            ],
            "id": "1733",
            "name": "Sp 1733 \u017dur\u00e1\u0148"
        },
        "1734": {
            "arrivals": [
                "20:33"
            ],
            "departures": [
                "20:33"
            ],
            "id": "1734",
            "name": "Sp 1734"
        },
        "1735": {
            "arrivals": [
                "19:28"
            ],
            "departures": [
                "19:28"
            ],
            "id": "1735",
            "name": "Sp 1735 Vl\u00e1ra"
        },
        "1736": {
            "arrivals": [
                "21:03"
            ],
            "departures": [
                "21:03"
            ],
            "id": "1736",
            "name": "Sp 1736 Vl\u00e1ra"
        },
        "1737": {
            "arrivals": [
                "21:28"
            ],
            "departures": [
                "21:28"
            ],
            "id": "1737",
            "name": "Sp 1737"
        },
        "1738": {
            "arrivals": [
                "22:33"
            ],
            "departures": [
                "22:33"
            ],
            "id": "1738",
            "name": "Sp 1738"
        },
        "4102": {
            "arrivals": [
                "05:50"
            ],
            "departures": [
                "05:50"
            ],
            "id": "4102",
            "name": "Os 4102"
        },
        "4109": {
            "arrivals": [
                "06:15"
            ],
            "departures": [
                "06:15"
            ],
            "id": "4109",
            "name": "Os 4109"
        },
        "4110": {
            "arrivals": [
                "09:48"
            ],
            "departures": [
                "09:48"
            ],
            "id": "4110",
            "name": "Os 4110"
        },
        "4112": {
            "arrivals": [
                "11:48"
            ],
            "departures": [
                "11:48"
            ],
            "id": "4112",
            "name": "Os 4112"
        },
        "4113": {
            "arrivals": [
                "08:15"
            ],
            "departures": [
                "08:15"
            ],
            "id": "4113",
            "name": "Os 4113"
        },
        "4114": {
            "arrivals": [
                "13:48"
            ],
            "departures": [
                "13:48"
            ],
            "id": "4114",
            "name": "Os 4114"
        },
        "4115": {
            "arrivals": [
                "10:15"
            ],
            "departures": [
                "10:15"
            ],
            "id": "4115",
            "name": "Os 4115"
        },
        "4116": {
            "arrivals": [
                "15:48"
            ],
            "departures": [
                "15:48"
            ],
            "id": "4116",
            "name": "Os 4116"
        },
        "4117": {
            "arrivals": [
                "12:15"
            ],
            "departures": [
                "12:15"
            ],
            "id": "4117",
            "name": "Os 4117"
        },
        "4118": {
            "arrivals": [
                "17:48"
            ],
            "departures": [
                "17:48"
            ],
            "id": "4118",
            "name": "Os 4118"
        },
        "4119": {
            "arrivals": [
                "14:14"
            ],
            "departures": [
                "14:14"
            ],
            "id": "4119",
            "name": "Os 4119"
        },
        "4120": {
            "arrivals": [
                "19:48"
            ],
            "departures": [
                "19:48"
            ],
            "id": "4120",
            "name": "Os 4120"
        },
        "4121": {
            "arrivals": [
                "16:14"
            ],
            "departures": [
                "16:14"
            ],
            "id": "4121",
            "name": "Os 4121"
        },
        "4123": {
            "arrivals": [
                "18:15"
            ],
            "departures": [
                "18:15"
            ],
            "id": "4123",
            "name": "Os 4123"
        },
        "4125": {
            "arrivals": [
                "22:48"
            ],
            "departures": [
                "22:48"
            ],
            "id": "4125",
            "name": "Os 4125"
        },
        "4140": {
            "arrivals": [
                "04:50"
            ],
            "departures": [
                "04:50"
            ],
            "id": "4140",
            "name": "Os 4140"
        },
        "4146": {
            "arrivals": [
                "06:50"
            ],
            "departures": [
                "06:50"
            ],
            "id": "4146",
            "name": "Os 4146"
        },
        "4155": {
            "arrivals": [
                "20:15"
            ],
            "departures": [
                "20:15"
            ],
            "id": "4155",
            "name": "Os 4155"
        },
        "4157": {
            "arrivals": [
                "22:48"
            ],
            "departures": [
                "22:48"
            ],
            "id": "4157",
            "name": "Os 4157"
        },
        "732": {
            "arrivals": [],
            "departures": [
                "08:57"
            ],
            "id": "732",
            "name": "R 732 Radegast"
        },
        "733": {
            "arrivals": [],
            "departures": [
                "07:02"
            ],
            "id": "733",
            "name": "R 733 Radegast"
        },
        "734": {
            "arrivals": [],
            "departures": [
                "10:57"
            ],
            "id": "734",
            "name": "R 734"
        },
        "735": {
            "arrivals": [],
            "departures": [
                "09:02"
            ],
            "id": "735",
            "name": "R 735"
        },
        "736": {
            "arrivals": [],
            "departures": [
                "12:57"
            ],
            "id": "736",
            "name": "R 736"
        },
        "737": {
            "arrivals": [],
            "departures": [
                "11:02"
            ],
            "id": "737",
            "name": "R 737"
        },
        "738": {
            "arrivals": [],
            "departures": [
                "14:59"
            ],
            "id": "738",
            "name": "R 738"
        },
        "739": {
            "arrivals": [],
            "departures": [
                "13:02"
            ],
            "id": "739",
            "name": "R 739"
        },
        "740": {
            "arrivals": [],
            "departures": [
                "16:59"
            ],
            "id": "740",
            "name": "R 740"
        },
        "741": {
            "arrivals": [],
            "departures": [
                "15:02"
            ],
            "id": "741",
            "name": "R 741"
        },
        "742": {
            "arrivals": [],
            "departures": [
                "18:59"
            ],
            "id": "742",
            "name": "R 742"
        },
        "743": {
            "arrivals": [],
            "departures": [
                "17:02"
            ],
            "id": "743",
            "name": "R 743"
        },
        "744": {
            "arrivals": [],
            "departures": [
                "20:55"
            ],
            "id": "744",
            "name": "R 744"
        },
        "745": {
            "arrivals": [],
            "departures": [
                "19:02"
            ],
            "id": "745",
            "name": "R 745"
        },
        "746": {
            "arrivals": [],
            "departures": [
                "22:55"
            ],
            "id": "746",
            "name": "R 746"
        },
        "747": {
            "arrivals": [],
            "departures": [
                "21:02"
            ],
            "id": "747",
            "name": "R 747"
        },
        "832": {
            "arrivals": [],
            "departures": [
                "09:57"
            ],
            "id": "832",
            "name": "R 832"
        },
        "833": {
            "arrivals": [],
            "departures": [
                "12:02"
            ],
            "id": "833",
            "name": "R 833"
        },
        "834": {
            "arrivals": [],
            "departures": [
                "15:59"
            ],
            "id": "834",
            "name": "R 834"
        },
        "835": {
            "arrivals": [],
            "departures": [
                "14:02"
            ],
            "id": "835",
            "name": "R 835"
        },
        "836": {
            "arrivals": [],
            "departures": [
                "17:59"
            ],
            "id": "836",
            "name": "R 836"
        },
        "837": {
            "arrivals": [],
            "departures": [
                "16:02"
            ],
            "id": "837",
            "name": "R 837"
        },
        "838": {
            "arrivals": [],
            "departures": [
                "19:57"
            ],
            "id": "838",
            "name": "R 838"
        },
        "839": {
            "arrivals": [],
            "departures": [
                "18:02"
            ],
            "id": "839",
            "name": "R 839"
        }
    }
}
423
