-0.1 -0.1
-0.1 0.0
-0.1 0.1
-0.1 0.19999999999999998
-0.1 0.30000000000000004
-0.1 0.4
-0.1 0.5
-0.1 0.6
-0.1 0.7000000000000001
-0.1 0.8
-0.1 0.9
-0.1 1.0
-0.1 1.0999999999999999
0.0 -0.1
0.0 0.0
0.0 0.1
0.0 0.19999999999999998
0.0 0.30000000000000004
0.0 0.4
0.0 0.5
0.0 0.6
0.0 0.7000000000000001
0.0 0.8
0.0 0.9
0.0 1.0
0.0 1.0999999999999999
0.1 -0.1
0.1 0.0
0.1 0.1
0.1 0.19999999999999998
0.1 0.30000000000000004
0.1 0.4
0.1 0.5
0.1 0.6
0.1 0.7000000000000001
0.1 0.8
0.1 0.9
0.1 1.0
0.1 1.0999999999999999
0.19999999999999998 -0.1
0.19999999999999998 0.0
0.19999999999999998 0.1
0.19999999999999998 0.19999999999999998
0.19999999999999998 0.30000000000000004
0.19999999999999998 0.4
0.19999999999999998 0.5
0.19999999999999998 0.6
0.19999999999999998 0.7000000000000001
0.19999999999999998 0.8
0.19999999999999998 0.9
0.19999999999999998 1.0
0.19999999999999998 1.0999999999999999
0.30000000000000004 -0.1
0.30000000000000004 0.0
0.30000000000000004 0.1
0.30000000000000004 0.19999999999999998
0.30000000000000004 0.30000000000000004
0.30000000000000004 0.4
0.30000000000000004 0.5
0.30000000000000004 0.6
0.30000000000000004 0.7000000000000001
0.30000000000000004 0.8
0.30000000000000004 0.9
0.30000000000000004 1.0
0.30000000000000004 1.0999999999999999
0.4 -0.1
0.4 0.0
0.4 0.1
0.4 0.19999999999999998
0.4 0.30000000000000004
0.4 0.4
0.4 0.5
0.4 0.6
0.4 0.7000000000000001
0.4 0.8
0.4 0.9
0.4 1.0
0.4 1.0999999999999999
0.5 -0.1
0.5 0.0
0.5 0.1
0.5 0.19999999999999998
0.5 0.30000000000000004
0.5 0.4
0.5 0.5
0.5 0.6
0.5 0.7000000000000001
0.5 0.8
0.5 0.9
0.5 1.0
0.5 1.0999999999999999
0.6 -0.1
0.6 0.0
0.6 0.1
0.6 0.19999999999999998
0.6 0.30000000000000004
0.6 0.4
0.6 0.5
0.6 0.6
0.6 0.7000000000000001
0.6 0.8
0.6 0.9
0.6 1.0
0.6 1.0999999999999999
0.7000000000000001 -0.1
0.7000000000000001 0.0
0.7000000000000001 0.1
0.7000000000000001 0.19999999999999998
0.7000000000000001 0.30000000000000004
0.7000000000000001 0.4
0.7000000000000001 0.5
0.7000000000000001 0.6
0.7000000000000001 0.7000000000000001
0.7000000000000001 0.8
0.7000000000000001 0.9
0.7000000000000001 1.0
0.7000000000000001 1.0999999999999999
0.8 -0.1
0.8 0.0
0.8 0.1
0.8 0.19999999999999998
0.8 0.30000000000000004
0.8 0.4
0.8 0.5
0.8 0.6
0.8 0.7000000000000001
0.8 0.8
0.8 0.9
0.8 1.0
0.8 1.0999999999999999
0.9 -0.1
0.9 0.0
0.9 0.1
0.9 0.19999999999999998
0.9 0.30000000000000004
0.9 0.4
0.9 0.5
0.9 0.6
0.9 0.7000000000000001
0.9 0.8
0.9 0.9
0.9 1.0
0.9 1.0999999999999999
1.0 -0.1
1.0 0.0
1.0 0.1
1.0 0.19999999999999998
1.0 0.30000000000000004
1.0 0.4
1.0 0.5
1.0 0.6
1.0 0.7000000000000001
1.0 0.8
1.0 0.9
1.0 1.0
1.0 1.0999999999999999
1.0999999999999999 -0.1
1.0999999999999999 0.0
1.0999999999999999 0.1
1.0999999999999999 0.19999999999999998
1.0999999999999999 0.30000000000000004
1.0999999999999999 0.4
1.0999999999999999 0.5
1.0999999999999999 0.6
1.0999999999999999 0.7000000000000001
1.0999999999999999 0.8
1.0999999999999999 0.9
1.0999999999999999 1.0
1.0999999999999999 1.0999999999999999