^C:\USERS\BAKMAN\DOCUMENTS\VISUAL STUDIO 2013\PROJECTS\EXPBROWSER\EXPBROWSER\DEBUG\CONTROLLER.OBJ|C:\USERS\BAKMAN\DOCUMENTS\VISUAL STUDIO 2013\PROJECTS\EXPBROWSER\EXPBROWSER\DEBUG\CWHEEL.OBJ|C:\USERS\BAKMAN\DOCUMENTS\VISUAL STUDIO 2013\PROJECTS\EXPBROWSER\EXPBROWSER\DEBUG\DATAMODEL.OBJ|C:\USERS\BAKMAN\DOCUMENTS\VISUAL STUDIO 2013\PROJECTS\EXPBROWSER\EXPBROWSER\DEBUG\GMODEL.OBJ|C:\USERS\BAKMAN\DOCUMENTS\VISUAL STUDIO 2013\PROJECTS\EXPBROWSER\EXPBROWSER\DEBUG\MAIN.OBJ|C:\USERS\BAKMAN\DOCUMENTS\VISUAL STUDIO 2013\PROJECTS\EXPBROWSER\EXPBROWSER\DEBUG\OCULUSRENDERER.OBJ|C:\USERS\BAKMAN\DOCUMENTS\VISUAL STUDIO 2013\PROJECTS\EXPBROWSER\EXPBROWSER\DEBUG\VOICE.OBJ
C:\PROGRAM FILES (X86)\WINDOWS KITS\8.1\LIB\WINV6.3\UM\X86\KERNEL32.LIB
C:\PROGRAM FILES (X86)\WINDOWS KITS\8.1\LIB\WINV6.3\UM\X86\USER32.LIB
C:\PROGRAM FILES (X86)\WINDOWS KITS\8.1\LIB\WINV6.3\UM\X86\GDI32.LIB
C:\PROGRAM FILES (X86)\WINDOWS KITS\8.1\LIB\WINV6.3\UM\X86\WINSPOOL.LIB
C:\PROGRAM FILES (X86)\WINDOWS KITS\8.1\LIB\WINV6.3\UM\X86\COMDLG32.LIB
C:\PROGRAM FILES (X86)\WINDOWS KITS\8.1\LIB\WINV6.3\UM\X86\ADVAPI32.LIB
C:\PROGRAM FILES (X86)\WINDOWS KITS\8.1\LIB\WINV6.3\UM\X86\SHELL32.LIB
C:\PROGRAM FILES (X86)\WINDOWS KITS\8.1\LIB\WINV6.3\UM\X86\OLE32.LIB
C:\PROGRAM FILES (X86)\WINDOWS KITS\8.1\LIB\WINV6.3\UM\X86\OLEAUT32.LIB
C:\PROGRAM FILES (X86)\WINDOWS KITS\8.1\LIB\WINV6.3\UM\X86\UUID.LIB
C:\PROGRAM FILES (X86)\WINDOWS KITS\8.1\LIB\WINV6.3\UM\X86\ODBC32.LIB
C:\PROGRAM FILES (X86)\WINDOWS KITS\8.1\LIB\WINV6.3\UM\X86\ODBCCP32.LIB
C:\PROGRAM FILES (X86)\JAVA\JDK1.7.0_76\LIB\JVM.LIB
C:\BIN\IRRLICHT-1.8.1\LIB\WIN32-VISUALSTUDIO\IRRLICHT.LIB
C:\BIN\BOOST_1_57_0\STAGE\LIB\LIBBOOST_FILESYSTEM-VC120-MT-GD-1_57.LIB
C:\BIN\LIBJSON\DEBUG\STATLIBJSON.LIB
C:\BIN\OCULUSSDK\LIBOVR\LIB\WIN32\VS2013\LIBOVR.LIB
C:\PROGRAM FILES (X86)\WINDOWS KITS\8.1\LIB\WINV6.3\UM\X86\WS2_32.LIB
C:\PROGRAM FILES (X86)\WINDOWS KITS\8.1\LIB\WINV6.3\UM\X86\WINMM.LIB
C:\BIN\IRRKLANG\LIB\WIN32-VISUALSTUDIO\IRRKLANG.LIB
C:\USERS\BAKMAN\DOCUMENTS\VISUAL STUDIO 2013\PROJECTS\EXPBROWSER\EXPBROWSER\DEBUG\CWHEEL.OBJ
C:\USERS\BAKMAN\DOCUMENTS\VISUAL STUDIO 2013\PROJECTS\EXPBROWSER\EXPBROWSER\DEBUG\DATAMODEL.OBJ
C:\USERS\BAKMAN\DOCUMENTS\VISUAL STUDIO 2013\PROJECTS\EXPBROWSER\EXPBROWSER\DEBUG\GMODEL.OBJ
C:\USERS\BAKMAN\DOCUMENTS\VISUAL STUDIO 2013\PROJECTS\EXPBROWSER\EXPBROWSER\DEBUG\MAIN.OBJ
C:\USERS\BAKMAN\DOCUMENTS\VISUAL STUDIO 2013\PROJECTS\EXPBROWSER\EXPBROWSER\DEBUG\CONTROLLER.OBJ
C:\USERS\BAKMAN\DOCUMENTS\VISUAL STUDIO 2013\PROJECTS\EXPBROWSER\EXPBROWSER\DEBUG\OCULUSRENDERER.OBJ
C:\USERS\BAKMAN\DOCUMENTS\VISUAL STUDIO 2013\PROJECTS\EXPBROWSER\EXPBROWSER\DEBUG\VOICE.OBJ
C:\WINDOWS\SYSTEM32\TZRES.DLL
C:\WINDOWS\GLOBALIZATION\SORTING\SORTDEFAULT.NLS
C:\PROGRAM FILES (X86)\MICROSOFT VISUAL STUDIO 12.0\VC\LIB\MSVCPRTD.LIB
C:\PROGRAM FILES (X86)\MICROSOFT VISUAL STUDIO 12.0\VC\LIB\MSVCRTD.LIB
C:\PROGRAM FILES (X86)\MICROSOFT VISUAL STUDIO 12.0\VC\LIB\OLDNAMES.LIB
C:\PROGRAM FILES (X86)\MICROSOFT VISUAL STUDIO 12.0\VC\LIB\VCOMPD.LIB
C:\BIN\BOOST_1_57_0\STAGE\LIB\LIBBOOST_SYSTEM-VC120-MT-GD-1_57.LIB
C:\PROGRAM FILES (X86)\MICROSOFT VISUAL STUDIO 12.0\VC\LIB\COMSUPPW.LIB
C:\PROGRAM FILES (X86)\WINDOWS KITS\8.1\LIB\WINV6.3\UM\X86\PSAPI.LIB
C:\PROGRAM FILES (X86)\WINDOWS KITS\8.1\LIB\WINV6.3\UM\X86\VERSION.LIB
C:\PROGRAM FILES (X86)\WINDOWS KITS\8.1\LIB\WINV6.3\UM\X86\DBGHELP.LIB
C:\PROGRAM FILES (X86)\WINDOWS KITS\8.1\LIB\WINV6.3\UM\X86\OPENGL32.LIB
